{"generatedAt": "2026-04-23T08:04:34.414Z", "source": "EU Funding & Tenders Search API (SEDIA)", "page": 9, "pageSize": 100, "total": 805, "totalPages": 9, "items": [{"Programme": "Horizon Europe", "Type of Action": "HORIZON Innovation Actions", "Topic code": "HORIZON-CL5-2027-07-D3-17", "Topic title": "PV based electrification of the economy: Designing & optimising PV systems supporting industrial electrification and promoting participation in electricity markets (EUPI-PV Partnership)", "Topic description": "Expected Outcome: Large PV systems such as utility scale PV are evolving towards higher voltage architecture (&gt;=3kV) with the objective to minimize losses and improve system efficiency at lower costs. The intention is to integrate also storage into such (hybrid) PV systems offering flexibility. It is consequently essential to build a blueprint for the implementation of high voltage large PV systems and the development of Direct Current (DC) networks around strategic end users for high voltage demand (industrial sites, servers, electric vehicle charging stations…). Understanding the factors that influence the performance and economics of these system architectures will help system planners evaluate the potential benefits of such hybrid resources that could support an increasing future industrial electrification. Another crucial challenge to address in ensuring the continued growth of new investments in solar PV, is the increasing occurrence of zero or negative prices in the electricity market, which dramatically hurt the profitability of operating solar PV assets. To tackle this challenge, PV participation to ancillary services is a way forward, which would reduce significantl...", "Topic description full": "Expected Outcome: Large PV systems such as utility scale PV are evolving towards higher voltage architecture (&gt;=3kV) with the objective to minimize losses and improve system efficiency at lower costs. The intention is to integrate also storage into such (hybrid) PV systems offering flexibility. It is consequently essential to build a blueprint for the implementation of high voltage large PV systems and the development of Direct Current (DC) networks around strategic end users for high voltage demand (industrial sites, servers, electric vehicle charging stations…). Understanding the factors that influence the performance and economics of these system architectures will help system planners evaluate the potential benefits of such hybrid resources that could support an increasing future industrial electrification. Another crucial challenge to address in ensuring the continued growth of new investments in solar PV, is the increasing occurrence of zero or negative prices in the electricity market, which dramatically hurt the profitability of operating solar PV assets. To tackle this challenge, PV participation to ancillary services is a way forward, which would reduce significantly system operating costs and PV curtailment and improve system reliability and PV profitability. The coupling/pooling with other generation assets or storage/demand assets is also to be considered. Project results are expected to contribute to all of the following expected outcomes as indicated for the proposed scope (high voltage DC PV systems or PV participation in electricity markets): Scope 1: High-voltage DC PV systems: Highly efficient PV systems, optimal utilisation of generated PV electricity, energy savings; Decreased levelised cost of electricity (LCOE) and affordable electricity for industrial users. Scope 2: PV participation in electricity markets: Increased social profitability of PV by participation to ancillary services; Energy efficient, cost competitive and flexible contribution of PV systems to the energy markets. All proposals are expected to support the execution of the solar energy joint research and innovation agenda. Scope: Proposals are expected to cover at least one of the following scopes: Scope 1: High-voltage DC PV systems: Design higher voltage system architectures and evaluate the efficiency benefit; Develop the blueprint for an AC (Alternating Current)/DC hybrid solution for managing end user loads, achieving high levels of efficiency; Demonstrate a high voltage &gt;3kV operating in DC grids for industrial installations hybrid system; Investigate the impact of higher voltage on PV modules. Scope 2: PV participation in electricity markets: Demonstrate integrated management of PV generators for dynamic and/or nodal pricing; Pool PV with other consumption/production assets to participate in balancing mechanisms; assess the viability of these systems and demonstrate business models and financing schemes; Demonstrate reliability, procurement driven risk mitigation and better system availability through digitalization. Whenever the expected exploitation of project results entails developing, creating, manufacturing and marketing a product or process, or in creating and providing a service, the plan for the exploitation and dissemination of results must include a strategy for such exploitation as well as a strong business case and sound exploitation strategy. The exploitation plan should include preliminary plans for scalability, commercialisation, and deployment (feasibility study, business plan) indicating the possible funding sources to be potentially used (in particular the Innovation Fund). This topic implements the co-programmed European Partnership for Innovation in Photovoltaics (EUPI-PV). As such, projects resulting from this topic will be expected to report on the results to the European Partnership for Innovation in Photovoltaics (EUPI-PV) in support of the monitoring of its KPIs. null Activities are expected to achieve TRL 6-8 by the end of the project – see General Annex B. Activities may start at any TRL.", "Budget (EUR) - Year : 2026": "N/A", "Status": "Forthcoming", "_statusLabel": "forthcoming", "_statusCode": "31094501", "_budgetEstimated": false, "_budgetSourceYear": "", "_budgetFallbackWarning": "", "Stages": "1", "Opening date": "2027-08-04", "Deadline": "2027-12-01", "Contributions": "N/A", "Indicative number of grants": "N/A", "CAll link": "https://ec.europa.eu/info/funding-tenders/opportunities/portal/screen/opportunities/topic-details/HORIZON-CL5-2027-07-D3-17"}, {"Programme": "Horizon Europe", "Type of Action": "HORIZON Research and Innovation Actions", "Topic code": "HORIZON-NEB-2027-01-PARTICIPATION-03", "Topic title": "Novel combinations of knowledge and research methods to address social issues and advance a fair green transition of neighbourhoods", "Topic description": "Expected Outcome: Project results are expected to contribute to all of the following expected outcomes: The scientific community, public authorities and neighbourhood [1] actors have a better understanding of social issues that influence the green transition [1] in neighbourhoods thanks to novel, transdisciplinary [1] combinations of knowledge and research methods. Robust evidence resulting from novel, transdisciplinary combinations of knowledge and research methods informs decision-making, policymaking, design and planning, and/or public service design for the green transition of neighbourhoods, including their nature-positive [4] transformation. Skills transfer among the scientific community and non-scientific actors involved in planning and implementing the green transition at the neighbourhood level. Scope: Social challenges (e.g. access to affordable housing, energy poverty, access to quality green spaces) impact the quality of life, health and well-being of individuals and communities [1] in neighbourhoods and influence how inhabitants experience and engage with the green transition. Advancing the green transition requires approaches that consider these varied experiences ...", "Topic description full": "Expected Outcome: Project results are expected to contribute to all of the following expected outcomes: The scientific community, public authorities and neighbourhood [1] actors have a better understanding of social issues that influence the green transition [1] in neighbourhoods thanks to novel, transdisciplinary [1] combinations of knowledge and research methods. Robust evidence resulting from novel, transdisciplinary combinations of knowledge and research methods informs decision-making, policymaking, design and planning, and/or public service design for the green transition of neighbourhoods, including their nature-positive [4] transformation. Skills transfer among the scientific community and non-scientific actors involved in planning and implementing the green transition at the neighbourhood level. Scope: Social challenges (e.g. access to affordable housing, energy poverty, access to quality green spaces) impact the quality of life, health and well-being of individuals and communities [1] in neighbourhoods and influence how inhabitants experience and engage with the green transition. Advancing the green transition requires approaches that consider these varied experiences and ensure fairness and inclusion of all. However, the know-how of local communities and other non-scientific actors remains underexplored when it comes to generating and/or validating solutions to advance the green transition. This topic focuses on innovative approaches for combining knowledge from local communities and non-scientific actors with scientific knowledge and/or formal research methods to address social issues that influence the green transition in neighbourhoods. Proposals are expected to address all of the following: Develop an innovative, transdisciplinary approach that brings novel insights on social issues that hinder a fair green transition in neighbourhoods, including their nature-positive transformation. The approach is expected to: Define the social issue(s) to be investigated. Where relevant, identify links between the social issue(s), relevant social phenomena and local specificities. Integrate knowledge from local communities and non-scientific actors with scientific knowledge and/or formal research methods that are not usually combined. Be tested or validated in at least three neighbourhoods (in urban, peri-urban and rural areas) located in different Member States and/or Associated Countries. Propose guidelines and recommendations for the uptake of the resulting insights and transdisciplinary approaches in decision-making, policymaking, design and planning, and/or public service design for neighbourhoods. Proposals are expected to follow a participatory [1] and transdisciplinary [1] approach through the integration of different actors and disciplines. This topic requires the effective contribution of social sciences and humanities (SSH) [1] disciplines and the involvement of SSH experts, institutions as well as the inclusion of relevant SSH expertise, in order to produce meaningful and significant effects enhancing the societal impact of the related research activities. Proposals are expected to allocate at least 0.8% of their budget for engaging with the Horizon Europe-funded 'New European Bauhaus hub for results and impact' to share their intermediate and final results, findings and learning, as well as to contribute to impact assessment. [1] See definition in the Glossary section of the NEB part of the HE WP26-27. [2] See definition in the Glossary section of the NEB part of the HE WP26-27. [3] See definition in the Glossary section of the NEB part of the HE WP26-27. [4] See definition in the Glossary section of the NEB part of the HE WP26-27. [5] See definition in the Glossary section of the NEB part of the HE WP26-27. [6] See definition in the Glossary section of the NEB part of the HE WP26-27. [7] See definition in the Glossary section of the NEB part of the HE WP26-27. [8] See definition in the Glossary section of the NEB part of the HE WP26-27.", "Budget (EUR) - Year : 2026": "N/A", "Status": "Forthcoming", "_statusLabel": "forthcoming", "_statusCode": "31094501", "_budgetEstimated": false, "_budgetSourceYear": "", "_budgetFallbackWarning": "", "Stages": "1", "Opening date": "2027-05-05", "Deadline": "2027-12-01", "Contributions": "N/A", "Indicative number of grants": "N/A", "CAll link": "https://ec.europa.eu/info/funding-tenders/opportunities/portal/screen/opportunities/topic-details/HORIZON-NEB-2027-01-PARTICIPATION-03"}, {"Programme": "Horizon Europe", "Type of Action": "HORIZON Innovation Actions", "Topic code": "HORIZON-CL5-2027-07-D3-11", "Topic title": "Demonstration of hydropower technologies for efficient and forward-looking refurbishment of existing hydropower plants", "Topic description": "Expected Outcome: For a renewables-based electricity system sufficient flexible and also in the long-run fully sustainable hydropower capacity is pivotal. Project results are expected to contribute to all of the following expected outcomes: Enhancing the capacities of the hydropower fleet to contribute with variable renewables base load to a secure and stable electricity system, including by modernising grid integration and hydropower fleet control. Increase technology leadership, competitiveness and technology export potential of European hydropower industry. Address challenges of climate change adaptation for a forward-looking and stable operation of sustainable hydropower for the coming decades. Scope: Demonstration of hydropower technology solutions which allow for efficient and forward-looking refurbishment of existing hydropower plants. Provided solutions must be socioeconomically and environmentally sustainable (including biodiversity) and provide a respective assessment. Issues which can be addressed are for example: Innovative design of turbines (and also draft tubes, nozzles and distributors) and generators, including innovative improvements based on future load cycles...", "Topic description full": "Expected Outcome: For a renewables-based electricity system sufficient flexible and also in the long-run fully sustainable hydropower capacity is pivotal. Project results are expected to contribute to all of the following expected outcomes: Enhancing the capacities of the hydropower fleet to contribute with variable renewables base load to a secure and stable electricity system, including by modernising grid integration and hydropower fleet control. Increase technology leadership, competitiveness and technology export potential of European hydropower industry. Address challenges of climate change adaptation for a forward-looking and stable operation of sustainable hydropower for the coming decades. Scope: Demonstration of hydropower technology solutions which allow for efficient and forward-looking refurbishment of existing hydropower plants. Provided solutions must be socioeconomically and environmentally sustainable (including biodiversity) and provide a respective assessment. Issues which can be addressed are for example: Innovative design of turbines (and also draft tubes, nozzles and distributors) and generators, including innovative improvements based on future load cycles and extending their intended life time; new models and simulation tools for harsher operational conditions; digitalisation and artificial intelligence to advance instrumentation and controls and flexibility and to develop innovative operational strategies towards reduced O&amp;M costs; transient aspect linked to new operating patterns of hydro plants to cope with climate changes and renewable base load; new materials for increased efficiency and resistance of equipment and increased performance, life time and resilience of infrastructure including e.g. phasing out of PFAS and mineral oils; low-GHG balance concrete; automated maintenance of metal hydropower turbines to reduce cost; operator hazards and reduce LCoE related to OPEX; Improving water uses resilience via integrated operations and management; simulation and forecasting tools for integrated risk and mitigation analysis for climate change adaptation and in response to extreme weather events by taking fully into account biodiversity requirements by targeting good ecological status and e.g. fish migration; water flows and sediment dynamics not hampering flexible hydropower production, innovative techniques for enhancing the life time of concrete structures and the overtopping safety of embankment and rockfill structures. null Activities are expected to achieve TRL 6-7 by the end of the project – see General Annex B. Activities may start at any TRL.", "Budget (EUR) - Year : 2026": "N/A", "Status": "Forthcoming", "_statusLabel": "forthcoming", "_statusCode": "31094501", "_budgetEstimated": false, "_budgetSourceYear": "", "_budgetFallbackWarning": "", "Stages": "1", "Opening date": "2027-08-04", "Deadline": "2027-12-01", "Contributions": "N/A", "Indicative number of grants": "N/A", "CAll link": "https://ec.europa.eu/info/funding-tenders/opportunities/portal/screen/opportunities/topic-details/HORIZON-CL5-2027-07-D3-11"}, {"Programme": "Citizens, Equality, Rights and Values", "Type of Action": "Grant", "Topic code": "CERV-2024-CITIZENS-VALUES", "Topic title": "Call for proposals for civil society organisations active on protecting and promoting Union values: call to intermediaries (giving financial support to third parties)", "Topic description": "Call for proposal for support to Slovenian and Croatian SCOs to “Go out and vote!” campaigns", "Topic description full": "Call for proposal for support to Slovenian and Croatian SCOs to “Go out and vote!” campaigns", "Budget (EUR) - Year : 2026": "N/A", "Status": "Open", "_statusLabel": "open", "_statusCode": "31094502", "_budgetEstimated": false, "_budgetSourceYear": "", "_budgetFallbackWarning": "", "Stages": "N/A", "Opening date": "N/A", "Deadline": "2028-01-01", "Contributions": "N/A", "Indicative number of grants": "N/A", "CAll link": "https://ec.europa.eu/info/funding-tenders/opportunities/portal/screen/opportunities/competitive-calls-cs/46357639"}, {"Programme": "Citizens, Equality, Rights and Values", "Type of Action": "Grant", "Topic code": "CERV-2024-CITIZENS-VALUES", "Topic title": "Call for proposals for civil society organisations active on protecting and promoting Union values: call to intermediaries (giving financial support to third parties)", "Topic description": "ReAction – Rapid Response Grants", "Topic description full": "ReAction – Rapid Response Grants", "Budget (EUR) - Year : 2026": "N/A", "Status": "Open", "_statusLabel": "open", "_statusCode": "31094502", "_budgetEstimated": false, "_budgetSourceYear": "", "_budgetFallbackWarning": "", "Stages": "N/A", "Opening date": "N/A", "Deadline": "2028-03-31", "Contributions": "N/A", "Indicative number of grants": "N/A", "CAll link": "https://ec.europa.eu/info/funding-tenders/opportunities/portal/screen/opportunities/competitive-calls-cs/46357639"}]}